<svg xmlns="http://www.w3.org/2000/svg" width="31" height="29">
    <path fill="#F4F2E9" fill-rule="evenodd" d="M30.094 15.5H3.54l11.624 11.624-1.414 1.414L.711 15.5H.5v-.212l-.185-.185.185-.185v-.337l-.185-.185.185-.185V13.5h.711L13.75.962l1.414 1.414L4.04 13.5h26.054v2z"/>
</svg>
