<svg xmlns="http://www.w3.org/2000/svg" width="31" height="29">
    <path fill="#F4F2E9" fill-rule="evenodd" d="M29.906 14.581v.337l.185.185-.185.185V16h-.711L16.656 28.538l-1.414-1.414L26.367 16H.312v-2h26.555L15.242 2.376 16.656.962 29.695 14h.211v.211l.185.185-.185.185z"/>
</svg>
