<svg xmlns="http://www.w3.org/2000/svg" width="309" height="74">
    <path fill="#FFF" fill-rule="evenodd" d="M303.997 53.449V44.92h-10.568v8.529h-4.098V31.994h4.098v9.291h10.568v-9.291h4.099v21.455h-4.099zm-32.466-5.598c.625.664 1.362 1.197 2.211 1.597.848.401 1.76.601 2.737.601.605 0 1.19-.088 1.756-.264.566-.176 1.102-.42 1.61-.732.508-.313.971-.679 1.391-1.1.419-.42.785-.864 1.098-1.333l3.835 1.553c-.469.86-1.045 1.637-1.727 2.33-.684.694-1.44 1.29-2.269 1.788-.83.498-1.728.885-2.693 1.158-.966.273-1.967.41-3.001.41-1.522 0-2.957-.293-4.304-.879-1.346-.586-2.522-1.382-3.528-2.389-1.005-1.006-1.8-2.184-2.385-3.532-.586-1.348-.879-2.784-.879-4.308s.293-2.961.879-4.309c.585-1.348 1.38-2.525 2.385-3.531 1.006-1.007 2.182-1.803 3.528-2.389 1.347-.586 2.782-.88 4.304-.88 1.034 0 2.035.137 3.001.411.965.273 1.863.659 2.693 1.157.829.499 1.585 1.095 2.269 1.788.682.694 1.258 1.461 1.727 2.301l-3.835 1.553c-.313-.469-.679-.908-1.098-1.318-.42-.411-.883-.772-1.391-1.085-.508-.313-1.044-.557-1.61-.733-.566-.176-1.151-.263-1.756-.263-.977 0-1.889.2-2.737.6-.849.401-1.586.934-2.211 1.598-.624.664-1.122 1.441-1.493 2.33s-.556 1.813-.556 2.77c0 .977.185 1.905.556 2.784.371.88.869 1.652 1.493 2.316zm-12.705 5.598h-4.099V35.628h-6.147v-3.634h16.364v3.634h-6.118v17.821zm-12.12 0l-1.669-3.37h-10.099l-1.64 3.37h-4.449l10.948-21.426h.41l10.949 21.426h-4.45zm-6.704-13.424l-3.074 6.478h6.119l-3.045-6.478zm-17.038 13.424l-5.796-12.486-5.856 12.515h-.38l-7.904-21.455h4.362l4.186 11.754 5.445-11.754h.264l5.445 11.783 4.274-11.783h4.362l-7.992 21.426h-.41zM188.42 38.633c-.742 1.201-1.474 2.384-2.196 3.546-.722 1.163-1.356 2.213-1.902 3.151v8.119h-4.099V45.33c-1.269-2.227-2.615-4.445-4.04-6.653-1.425-2.208-2.781-4.426-4.069-6.654h4.772c.878 1.465 1.775 2.98 2.693 4.543.917 1.564 1.815 3.078 2.693 4.543.429-.683.879-1.416 1.347-2.198.468-.781.937-1.568 1.405-2.359l1.391-2.345c.458-.772.893-1.5 1.302-2.184h4.772c-.546.899-1.176 1.925-1.888 3.078-.713 1.153-1.44 2.33-2.181 3.532zm-22.395 3.971l-6.704 8.061-6.675-8.061v10.845h-4.098V32.023h.263l10.51 12.369 10.539-12.369h.263v21.426h-4.098V42.604zm-46.693-1.905v12.75h-4.098V32.023h.438l14.082 12.955V32.023h4.098v21.426h-.438l-14.082-12.75zm-10.992 9.892c-1.006 1.007-2.181 1.803-3.528 2.389-1.347.586-2.791.879-4.332.879-1.523 0-2.957-.293-4.304-.879-1.347-.586-2.523-1.382-3.528-2.389-1.005-1.006-1.8-2.184-2.386-3.532-.585-1.348-.878-2.794-.878-4.338 0-1.524.293-2.964.878-4.323.586-1.358 1.381-2.54 2.386-3.546 1.005-1.007 2.181-1.803 3.528-2.389 1.347-.586 2.781-.879 4.304-.879 1.541 0 2.985.293 4.332.879 1.347.586 2.522 1.382 3.528 2.389 1.005 1.006 1.8 2.188 2.386 3.546.585 1.359.878 2.799.878 4.323 0 1.544-.293 2.99-.878 4.338-.586 1.348-1.381 2.526-2.386 3.532zm-1.39-10.639c-.37-.889-.872-1.666-1.504-2.331-.633-.664-1.374-1.196-2.221-1.597-.847-.4-1.758-.601-2.731-.601-.974 0-1.885.201-2.732.601-.847.401-1.587.933-2.22 1.597-.633.665-1.134 1.442-1.504 2.331-.371.889-.556 1.812-.556 2.769 0 .978.185 1.906.556 2.785.37.879.871 1.656 1.504 2.33.633.674 1.373 1.212 2.22 1.612.847.401 1.758.601 2.732.601.973 0 1.884-.2 2.731-.601.847-.4 1.588-.938 2.221-1.612.632-.674 1.134-1.451 1.504-2.33.37-.879.555-1.807.555-2.785 0-.957-.185-1.88-.555-2.769zm-35.139 2.77c0-3.906-.67-7.654-1.898-11.138h6.872v22.275h-6.872c1.228-3.484 1.898-7.232 1.898-11.137zm-57.088-.735h4.039v1.642h-4.039v-1.642zm4.332 10.552c.776 0 1.405.629 1.405 1.406 0 .777-.629 1.407-1.405 1.407s-1.405-.63-1.405-1.407.629-1.406 1.405-1.406zm6.748 9.581c0-.777.628-1.407 1.404-1.407.776 0 1.405.63 1.405 1.407s-.629 1.406-1.405 1.406-1.404-.629-1.404-1.406zm11.721.293h1.64v4.044h-1.64v-4.044zm10.551-.293c0-.777.629-1.407 1.405-1.407s1.405.63 1.405 1.407-.629 1.406-1.405 1.406-1.405-.629-1.405-1.406zm13.89-18.491h-4.04v-1.642h4.04v1.642zm-4.333-10.552c-.776 0-1.404-.63-1.404-1.407s.628-1.407 1.404-1.407c.776 0 1.406.63 1.406 1.407s-.63 1.407-1.406 1.407zm-6.747-9.582c0 .777-.629 1.407-1.405 1.407s-1.405-.63-1.405-1.407c0-.776.629-1.406 1.405-1.406s1.405.63 1.405 1.406zm-12.541.774l-2.106-5.111h4.211l-2.105 5.111zm-9.732-.774c0 .777-.629 1.407-1.405 1.407s-1.404-.63-1.404-1.407c0-.776.628-1.406 1.404-1.406.776 0 1.405.63 1.405 1.406zm36.05 34.658c-.489.833-1.017 1.641-1.58 2.421l-2.602-3.428.014-.021-9.846-12.97-10.086 13.287c-.203.266-.439.484-.689.672-.411.388-.92.628-1.48.628-.034 0-.065-.01-.098-.012-.533.035-1.052-.094-1.477-.418-.657-.501-.934-1.338-.829-2.209-.01-.108-.027-.213-.027-.324V36.498l-7.433 9.793c-.387.507-.877.875-1.395 1.088-.309.148-.648.217-.997.211-.348.006-.687-.063-.995-.211-.519-.212-1.009-.581-1.396-1.088l-9.948-13.106c-1.146 2.958-1.775 6.173-1.775 9.537 0 14.581 11.806 26.401 26.37 26.401 7.058 0 13.469-2.777 18.201-7.298l2.484 3.273c-5.432 5.035-12.699 8.115-20.685 8.115-16.82 0-30.455-13.651-30.455-30.491 0-5.216 1.309-10.125 3.615-14.418.098-.342.267-.652.509-.907.506-.871 1.055-1.715 1.642-2.529l2.602 3.429-.028.043 9.859 12.989 10.087-13.287c.991-1.303 2.667-1.692 3.744-.871.675.515.953 1.384.823 2.281.014.128.032.254.032.386v19.148l7.434-9.793c.387-.508.878-.877 1.398-1.09.307-.147.646-.215.993-.21.347-.005.685.063.992.21.52.212 1.012.581 1.4 1.09l9.937 13.091c1.152-2.965 1.785-6.189 1.785-9.562 0-14.582-11.806-26.401-26.369-26.401-7.058 0-13.469 2.776-18.202 7.297l-2.483-3.273c5.432-5.035 12.699-8.115 20.685-8.115 16.819 0 30.454 13.651 30.454 30.492 0 5.195-1.299 10.086-3.588 14.367-.1.408-.299.776-.597 1.064zM45.502 1.695c-.467 0-.846-.38-.846-.848 0-.468.379-.847.846-.847.467 0 .846.379.846.847 0 .468-.379.848-.846.848zm-7.12 7.557c-2.562 0-5.057.289-7.454.836V1.695l1.821 4.478 1.822-4.478 1.822 4.478 1.822-4.478 1.822 4.478 1.822-4.478 1.821 4.478 1.822-4.478v8.32c-2.295-.498-4.676-.763-7.12-.763zm-8.3-8.405c0-.468.379-.847.846-.847.467 0 .846.379.846.847 0 .468-.379.848-.846.848-.467 0-.846-.38-.846-.848zm7.287 0c0-.468.379-.847.846-.847.467 0 .846.379.846.847 0 .468-.379.848-.846.848-.467 0-.846-.38-.846-.848zm4.492.848c-.468 0-.846-.38-.846-.848 0-.468.378-.847.846-.847.467 0 .846.379.846.847 0 .468-.379.848-.846.848zm-7.313 0c-.467 0-.846-.38-.846-.848 0-.468.379-.847.846-.847.467 0 .846.379.846.847 0 .468-.379.848-.846.848zM6.85 53.859H0V31.584h6.85c-1.228 3.484-1.898 7.232-1.898 11.138 0 3.905.67 7.653 1.898 11.137z"/>
</svg>
